<?xml version="1.0" standalone="no"?>
<!DOCTYPE svg PUBLIC "-//W3C//DTD SVG 20010904//EN"
 "http://www.w3.org/TR/2001/REC-SVG-20010904/DTD/svg10.dtd">
<svg version="1.0" xmlns="http://www.w3.org/2000/svg"
 width="541.000000pt" height="549.000000pt" viewBox="0 0 541.000000 549.000000"
 preserveAspectRatio="xMidYMid meet">

<g transform="translate(0.000000,549.000000) scale(0.100000,-0.100000)"
fill="#000000" stroke="none">
<path d="M2877 4004 c-4 -4 -7 -40 -7 -81 l0 -73 45 0 c33 0 45 4 45 15 0 9
-9 15 -25 15 -16 0 -25 6 -25 15 0 9 9 15 25 15 16 0 25 6 25 15 0 9 -9 15
-25 15 -18 0 -25 5 -25 20 0 16 7 20 31 20 46 0 31 24 -17 28 -22 2 -43 0 -47
-4z"/>
<path d="M2690 3993 c-13 -3 -15 -14 -9 -61 4 -31 8 -65 8 -74 1 -14 10 -18
40 -18 61 0 90 40 55 74 -9 9 -13 24 -9 35 11 36 -32 59 -85 44z m48 -40 c-4
-22 -22 -20 -26 1 -2 10 3 16 13 16 10 0 15 -7 13 -17z m22 -69 c0 -8 -9 -14
-20 -14 -22 0 -28 26 -7 33 16 6 27 -1 27 -19z"/>
<path d="M3082 3921 c-23 -37 -42 -71 -42 -75 0 -3 9 -6 20 -6 11 0 20 5 20
10 0 6 14 10 31 10 22 0 32 -5 36 -20 3 -12 14 -20 25 -20 12 0 18 5 15 13 -2
7 -10 39 -17 72 -12 57 -24 85 -39 85 -3 0 -25 -31 -49 -69z m58 -17 c0 -8 -7
-14 -15 -14 -15 0 -21 21 -9 33 10 9 24 -2 24 -19z"/>
<path d="M3289 3923 c-7 -16 -14 -49 -17 -75 -4 -47 -4 -48 29 -62 19 -8 42
-11 54 -7 23 9 55 67 58 107 3 47 -20 37 -39 -18 -19 -53 -36 -66 -64 -49 -12
9 -12 16 2 62 10 29 15 56 12 61 -10 16 -25 8 -35 -19z"/>
<path d="M2350 3900 c-45 -45 -8 -140 55 -140 27 0 85 48 85 69 0 18 -29 12
-39 -8 -15 -28 -49 -33 -72 -10 -22 22 -24 38 -6 64 10 13 22 17 43 12 40 -8
64 7 36 22 -32 17 -80 13 -102 -9z"/>
<path d="M3500 3859 c0 -7 7 -17 16 -24 15 -10 14 -16 -10 -64 -25 -49 -27
-71 -6 -71 6 0 22 24 36 53 33 64 29 61 52 48 16 -8 21 -7 26 4 4 10 -10 23
-44 40 -55 28 -70 31 -70 14z"/>
<path d="M2200 3840 c-13 -8 -10 -19 19 -75 18 -36 39 -65 47 -65 21 0 17 18
-19 87 -25 50 -35 60 -47 53z"/>
<path d="M2057 3758 c-26 -17 -47 -37 -47 -44 0 -17 22 -18 37 -3 7 7 20 -5
43 -40 30 -47 48 -60 63 -45 3 4 -9 29 -28 57 -32 48 -33 52 -18 69 31 35 0
39 -50 6z"/>
<path d="M3690 3735 c0 -31 -7 -60 -21 -81 -19 -32 -19 -54 1 -54 5 0 17 13
27 30 12 21 32 35 67 46 45 15 48 18 31 30 -12 9 -23 10 -36 4 -29 -16 -39
-12 -39 19 0 16 -7 34 -15 41 -13 11 -15 6 -15 -35z"/>
<path d="M2735 3759 c-279 -33 -559 -177 -760 -390 -465 -495 -445 -1283 44
-1752 322 -308 758 -425 1185 -316 95 24 236 78 236 90 0 5 -24 -2 -54 -15
-181 -80 -437 -119 -628 -96 -542 65 -966 451 -1083 985 -25 113 -30 322 -11
440 19 114 70 274 117 367 77 152 236 342 369 439 366 267 827 319 1242 139
186 -81 383 -242 509 -415 66 -92 152 -268 183 -376 84 -292 54 -625 -79 -889
-19 -38 -31 -70 -27 -70 12 0 75 138 106 231 57 170 73 418 41 604 -63 357
-289 681 -604 864 -231 135 -515 192 -786 160z"/>
<path d="M3860 3665 c0 -4 46 -56 103 -115 160 -166 273 -353 346 -565 126
-373 95 -796 -86 -1148 -25 -48 -43 -90 -40 -93 9 -10 106 191 138 287 59 178
73 265 73 479 0 220 -12 303 -71 479 -64 192 -168 373 -300 523 -68 77 -163
166 -163 153z"/>
<path d="M1895 3630 l-28 -29 47 -56 c26 -30 51 -55 54 -55 19 1 63 52 58 67
-6 14 -9 13 -30 -6 -20 -19 -25 -20 -35 -7 -10 11 -8 17 11 30 17 12 19 19 10
28 -9 9 -16 8 -30 -5 -14 -13 -21 -14 -30 -5 -10 10 -8 16 9 29 12 9 19 21 15
28 -11 17 -20 14 -51 -19z"/>
<path d="M2754 3548 l-29 -33 33 29 c17 17 32 31 32 33 0 8 -8 1 -36 -29z"/>
<path d="M3770 3565 c0 -3 30 -33 66 -67 140 -132 284 -360 349 -553 48 -141
67 -265 67 -430 0 -219 -38 -389 -128 -580 -49 -102 -49 -105 -25 -75 30 37
100 211 126 315 113 444 3 894 -308 1256 -59 69 -147 149 -147 134z"/>
<path d="M1774 3508 c-4 -6 3 -19 16 -30 22 -18 22 -19 5 -38 -18 -20 -18 -20
-40 0 -18 17 -24 18 -33 7 -10 -11 0 -24 47 -65 43 -38 61 -48 69 -40 9 9 6
18 -10 35 -20 21 -20 25 -6 39 14 15 18 15 40 0 21 -14 27 -14 36 -3 9 11 0
24 -43 60 -56 49 -69 55 -81 35z"/>
<path d="M3068 3483 c6 -2 18 -2 25 0 6 3 1 5 -13 5 -14 0 -19 -2 -12 -5z"/>
<path d="M2601 3395 c-100 -106 -204 -236 -252 -315 -67 -109 -130 -354 -128
-489 l2 -66 8 87 c15 174 67 359 130 464 42 70 156 213 255 322 41 45 73 82
71 82 -3 0 -41 -38 -86 -85z"/>
<path d="M2932 3439 c-65 -11 -132 -44 -132 -65 0 -8 7 -29 16 -45 11 -23 20
-29 32 -23 84 35 142 41 207 20 11 -3 7 0 -10 8 -38 19 -109 19 -160 1 -22 -8
-43 -15 -46 -15 -5 0 -29 45 -29 55 0 15 88 45 156 54 112 16 192 -6 302 -81
23 -16 42 -25 42 -20 0 14 -79 101 -104 114 -11 6 2 -10 29 -36 28 -26 46 -46
40 -44 -5 2 -45 21 -88 41 -86 42 -163 53 -255 36z"/>
<path d="M1619 3309 c-24 -38 -29 -53 -20 -62 8 -8 15 -6 25 9 13 17 17 18 38
5 84 -52 85 -52 92 -36 4 11 -9 25 -44 47 -55 34 -54 32 -40 58 7 13 6 19 -5
23 -9 4 -25 -12 -46 -44z"/>
<path d="M2606 3332 c-4 -10 -34 -40 -67 -66 -33 -26 -61 -52 -63 -59 -2 -7
-10 -34 -19 -61 -16 -45 -16 -51 -1 -82 9 -19 19 -33 21 -30 3 2 0 13 -6 24
-13 25 -14 79 -2 86 5 4 12 -8 16 -25 4 -17 9 -28 12 -25 3 3 0 25 -7 50 -15
54 -8 66 67 126 47 37 70 67 59 77 -2 3 -7 -4 -10 -15z"/>
<path d="M3080 3317 c0 -2 15 -14 33 -27 20 -15 27 -17 18 -6 -13 16 -51 41
-51 33z"/>
<path d="M2914 3281 c-6 -6 148 -61 161 -57 12 3 -97 45 -123 47 -9 1 -1 5 18
9 l35 8 -43 -1 c-23 -1 -45 -3 -48 -6z"/>
<path d="M3011 3276 c2 -2 44 -18 94 -34 l90 -31 -90 0 c-50 1 -123 7 -164 15
-41 7 -76 12 -79 10 -6 -7 128 -35 203 -42 51 -5 64 -9 50 -16 -14 -6 -12 -7
10 -2 17 3 32 10 33 15 2 5 16 9 30 9 15 0 34 5 42 10 12 8 10 10 -10 10 -14
0 -63 14 -110 30 -79 28 -109 36 -99 26z"/>
<path d="M3058 3163 c6 -2 18 -2 25 0 6 3 1 5 -13 5 -14 0 -19 -2 -12 -5z"/>
<path d="M1531 3134 c-25 -32 -27 -57 -5 -78 22 -23 34 -20 71 16 23 22 36 29
43 22 15 -15 1 -44 -20 -44 -15 0 -30 -18 -30 -36 0 -12 43 -1 60 16 29 29 36
67 15 90 -25 27 -41 25 -77 -10 -16 -16 -34 -30 -39 -30 -16 0 -10 28 9 42 30
21 36 38 13 38 -11 0 -29 -12 -40 -26z"/>
<path d="M3008 3153 c7 -3 16 -2 19 1 4 3 -2 6 -13 5 -11 0 -14 -3 -6 -6z"/>
<path d="M2574 3129 c-7 -12 25 -60 46 -67 7 -3 4 6 -8 18 -32 34 -25 58 7 28
11 -10 12 -10 7 -1 -12 21 -44 35 -52 22z"/>
<path d="M2699 3065 c-2 -19 -13 -34 -29 -42 -24 -12 -24 -13 -3 -13 26 0 46
31 40 63 -3 18 -4 17 -8 -8z"/>
<path d="M3120 2988 c-86 -44 -114 -129 -57 -172 33 -24 126 -33 206 -18 l53
10 -6 -46 c-14 -106 -96 -228 -195 -291 -64 -41 -168 -49 -338 -27 -67 9 -127
15 -135 15 -35 -3 140 -29 237 -35 147 -9 204 3 276 60 90 71 143 163 173 298
7 30 28 39 150 59 96 16 120 9 140 -41 35 -89 15 -135 -87 -201 -73 -47 -91
-48 -107 -9 -14 35 -55 70 -79 70 -9 -1 -2 -7 16 -15 44 -19 65 -66 73 -165
l7 -85 2 75 1 75 47 19 c26 11 71 43 100 71 48 46 53 55 53 93 0 48 -30 116
-55 126 -28 11 -87 6 -172 -13 l-83 -19 0 37 c0 78 -67 151 -139 151 -20 0
-57 -10 -81 -22z m154 -13 c31 -20 46 -57 46 -109 0 -50 -3 -52 -89 -62 -117
-13 -191 14 -191 71 0 33 63 102 104 115 39 11 100 4 130 -15z"/>
<path d="M2503 2993 c9 -2 25 -2 35 0 9 3 1 5 -18 5 -19 0 -27 -2 -17 -5z"/>
<path d="M2434 2971 c-42 -25 -82 -80 -90 -121 -7 -33 -7 -33 22 -25 31 9 40
9 174 1 l85 -5 -84 10 c-47 5 -87 12 -90 15 -22 22 108 30 164 10 11 -4 8 0
-7 9 -53 30 -106 29 -183 -4 -38 -16 -71 -28 -73 -26 -3 2 6 25 18 51 16 31
37 55 68 75 50 32 46 41 -4 10z"/>
<path d="M2595 2974 c6 -5 23 -20 40 -34 29 -24 29 -24 10 -2 -11 13 -29 28
-40 34 -11 6 -15 6 -10 2z"/>
<path d="M1450 2928 c-7 -22 -8 -44 -3 -48 7 -6 121 -40 135 -40 7 0 28 57 28
76 0 25 -28 15 -34 -12 -9 -33 -31 -25 -31 11 0 36 -21 44 -29 10 -9 -37 -40
-34 -31 4 4 20 2 30 -9 34 -11 5 -18 -4 -26 -35z"/>
<path d="M3488 2768 c-13 -13 -17 -18 -8 -12 8 6 24 16 35 22 11 6 15 12 8 12
-7 0 -22 -10 -35 -22z"/>
<path d="M1489 2751 c-72 -20 -89 -27 -89 -41 0 -8 131 -90 144 -90 3 0 6 9 6
20 0 11 -4 20 -10 20 -5 0 -10 14 -10 31 0 22 5 32 20 36 11 3 20 14 20 24 0
22 4 22 -81 0z m11 -51 c0 -17 -3 -18 -26 -8 -23 11 -24 13 -7 19 29 12 33 10
33 -11z"/>
<path d="M2711 2758 c-8 -9 -51 -13 -142 -13 -92 0 -119 -2 -92 -8 65 -14 221
-4 240 16 10 9 15 17 12 17 -3 0 -11 -6 -18 -12z"/>
<path d="M2408 2753 c7 -3 16 -2 19 1 4 3 -2 6 -13 5 -11 0 -14 -3 -6 -6z"/>
<path d="M3422 2707 c-28 -30 -29 -51 -2 -42 15 5 23 0 31 -19 15 -33 34 -39
68 -21 47 24 49 61 4 96 -12 10 -11 5 5 -15 16 -21 19 -33 12 -46 -20 -37 -67
-40 -80 -5 -5 14 -16 25 -25 25 -19 0 -19 9 2 32 24 26 10 22 -15 -5z"/>
<path d="M3301 2624 c-12 -15 -21 -30 -21 -34 0 -20 43 -41 91 -45 l54 -4 -55
10 c-30 5 -61 16 -69 24 -13 13 -12 18 7 45 28 37 21 40 -7 4z"/>
<path d="M1386 2562 c-19 -80 21 -369 73 -524 79 -233 189 -408 370 -588 189
-188 349 -287 596 -369 162 -53 276 -71 461 -71 176 0 329 22 469 69 101 33
249 99 224 100 -9 1 -50 -15 -91 -34 -96 -44 -261 -90 -392 -110 -256 -38
-536 -2 -786 102 -181 75 -314 166 -476 328 -132 132 -217 248 -290 401 -91
190 -132 359 -143 584 -5 106 -9 136 -15 112z"/>
<path d="M1516 2581 c-11 -17 1 -199 20 -309 94 -545 524 -988 1074 -1107 105
-23 336 -31 456 -15 150 18 424 104 424 132 0 4 -12 2 -28 -6 -51 -26 -227
-84 -312 -102 -134 -28 -403 -26 -540 4 -264 59 -499 188 -685 376 -106 107
-173 198 -239 326 -102 198 -145 357 -155 580 -4 83 -9 130 -15 121z"/>
<path d="M2377 2509 c7 -7 15 -10 18 -7 3 3 -2 9 -12 12 -14 6 -15 5 -6 -5z"/>
<path d="M3372 2490 c0 -14 2 -19 5 -12 2 6 2 18 0 25 -3 6 -5 1 -5 -13z"/>
<path d="M2418 2493 c7 -3 16 -2 19 1 4 3 -2 6 -13 5 -11 0 -14 -3 -6 -6z"/>
<path d="M2463 2483 c9 -2 23 -2 30 0 6 3 -1 5 -18 5 -16 0 -22 -2 -12 -5z"/>
<path d="M2545 2469 c22 -4 51 -8 65 -7 16 0 11 3 -15 9 -22 4 -51 8 -65 7
-16 0 -11 -3 15 -9z"/>
<path d="M2221 2409 c1 -30 5 -67 9 -84 4 -17 5 5 2 50 -6 93 -13 114 -11 34z"/>
<path d="M3356 2414 c-3 -26 -6 -93 -6 -148 0 -68 -4 -107 -12 -116 -11 -12
-10 -12 5 -1 15 12 17 11 17 -11 0 -33 63 -159 92 -184 19 -16 18 -14 -4 16
-48 65 -71 123 -72 176 -1 29 -5 49 -10 46 -6 -3 -7 50 -3 131 3 76 5 137 3
137 -2 0 -6 -21 -10 -46z"/>
<path d="M2484 2395 c3 -11 15 -60 26 -109 11 -50 39 -141 60 -205 22 -63 38
-123 34 -133 -3 -10 -1 -18 5 -18 6 0 12 -34 14 -77 3 -53 3 -48 2 17 -2 81
-8 112 -43 215 -23 66 -50 160 -62 209 -11 49 -25 96 -31 105 -8 14 -9 13 -5
-4z"/>
<path d="M3432 2365 c0 -16 2 -22 5 -12 2 9 2 23 0 30 -3 6 -5 -1 -5 -18z"/>
<path d="M3421 2314 c0 -11 3 -14 6 -6 3 7 2 16 -1 19 -3 4 -6 -2 -5 -13z"/>
<path d="M2241 2274 c0 -11 3 -14 6 -6 3 7 2 16 -1 19 -3 4 -6 -2 -5 -13z"/>
<path d="M2266 2200 c10 -39 59 -132 84 -160 l22 -25 -22 32 c-11 18 -37 65
-56 105 -19 40 -32 62 -28 48z"/>
<path d="M3284 2098 l-19 -23 23 19 c12 11 22 21 22 23 0 8 -8 2 -26 -19z"/>
<path d="M2390 1986 c27 -31 107 -86 124 -86 6 0 -9 12 -34 26 -25 14 -61 40
-80 57 -33 30 -33 30 -10 3z"/>
<path d="M3490 1905 c13 -14 26 -25 28 -25 3 0 -5 11 -18 25 -13 14 -26 25
-28 25 -3 0 5 -11 18 -25z"/>
<path d="M3950 1798 c-11 -12 -20 -27 -20 -33 0 -6 28 -30 61 -53 57 -40 62
-41 75 -25 37 48 26 98 -20 98 -14 -1 -26 5 -26 11 0 11 -21 24 -40 24 -5 0
-18 -10 -30 -22z m57 -13 c2 -6 -3 -20 -11 -30 -14 -19 -16 -19 -32 -3 -15 14
-15 20 -4 33 14 17 41 17 47 0z m67 -31 c4 -9 -1 -28 -10 -41 -15 -24 -16 -24
-37 -6 -12 10 -24 19 -26 20 -2 2 4 12 14 23 22 24 51 26 59 4z"/>
<path d="M2611 1744 c0 -11 3 -14 6 -6 3 7 2 16 -1 19 -3 4 -6 -2 -5 -13z"/>
<path d="M3903 1642 c48 -49 56 -69 35 -90 -22 -22 -52 -12 -95 30 -24 23 -43
37 -43 31 0 -16 87 -93 105 -93 21 0 65 45 65 66 0 19 -85 104 -104 104 -5 0
11 -22 37 -48z"/>
<path d="M3680 1516 c0 -3 23 -32 50 -65 l51 -61 29 22 c16 11 27 25 24 30 -4
5 -16 0 -28 -11 l-23 -21 -44 55 c-38 48 -59 66 -59 51z"/>
<path d="M3563 1430 c-75 -30 -46 -150 36 -150 40 0 63 18 75 58 11 33 -8 27
-21 -8 -14 -37 -53 -49 -88 -26 -50 33 -22 121 37 116 36 -3 45 1 23 10 -25
11 -35 11 -62 0z"/>
</g>
</svg>
